{
  "type": "service_account",
  "project_id": "sallve-85185",
  "private_key_id": "dde837b848675c39184e56dd6f0cd2eab71d82a3",
  "private_key": "-----BEGIN PRIVATE KEY-----\nMIIEvgIBADANBgkqhkiG9w0BAQEFAASCBKgwggSkAgEAAoIBAQCu/9DLhVi/hFVK\n7zMV5A/ZXfda3T08bd80Ti/yUYljc0sebfHPdB4x/hu9u9csC97s/ZTykVqZoRA2\n6aICF4usmQBXlkfTG5/OccgBdPgymsw/kN8wm6c/y5lHSbJkuqDUmIZZ2oOOHeWN\nhHMXfooUvyWqJVPIuXcL63M2SIZ8LRy2y3jsNBbjrDPlAYu/7UUe2EoPYzhs7lS/\nvBJkZ9CcqlI562t/3d1mhkJahQNrY5BvB3uZzO2NukDVjanxhp5WkuzDOq/XMl+6\naiiH4I162stNND2JE3mwvb/pimFJUn7YSBctojYkMNJMigVlCKXVPHt3xWtag0P/\neqbvMv61AgMBAAECggEAA6otH90VsHtGv8PfDgD4qVSq4Ip6b5fA/4kx22hZuDRV\nc7hZtHddnErZkPwP07jBQJjV/pPFkfINiG4xbz1WGiOoVxDHfoC5Jj0tiGiAAwEQ\nN7ZYEqVot61L1qs7igslmjGz8+amr/bFphu1TU/Dvyt6euPpq3w20DreCz3dIVkA\nhrVr0GFRNPB3QTq0MErAm8E2ADkNtZSbkMrt3cYKDR0zJPMO0fqbyDAUpmcsNPUa\nkE5B4QjJmGv6F8+b0bRJudMNXuJhTWqoEsfyKjQsExxOOcsirdXRvmxTqHL7zvNU\nO/fmxI9DS+ZWDLgOJpItaan1Ox7eJPrVVmm7KxnYAQKBgQDXQVcX0PTuzT9sz9Gz\nUq6QcnDVY7uUAjv2cvn1Tg4e7vVKvOfhzlof8oDjDw19XzBb5PbplqsPVI2Y+rC/\nf4dmpP+xl8Kz7P2m/cPyWkO5Ka2dfhDGkubcNxtt0yPUJuWBXcOUaQyl4zBAEHqW\nqcGF9hNWySg+AbP3bFSMeBpxTQKBgQDQH8khrq7xiC96KmA+gAMuJ2waNMjbYvgf\nnR82p9w2ukg21rePYtK/lZ8qBfIQDfH311d1S2wnnUZiLJ46cvjGTgfw3ELkaKNy\n6hNh4XzRodoHMzIM1RYk+VSrD9slUARFkXS/HfziuznoNsbF3l3s6rfwqt1wRuLt\n1aTQR2ePCQKBgQDQ9/7cASB3YExNj2ct5nvPgTom/v5QTub1d2NQEKnGwAbjuoaG\ngXSfBSa4x5k5+BoTbDGETZ/dbyFTvTOvhNfm/xG3z/PWBqGs5zi944FRlbOVbJhO\nnrh+WwVG1i43PFecAnHndyAvP2JNH3JTJ5PXQDBAFWL6515WOhXOlJ5fFQKBgQCC\nGdyZeaFSy1cifyr65vsV9v7UwvpsaknBOW8xs20tqPVLkp3cvGIR8W41ztGqx4zi\n6XJ6mFNb0C0XYdznnMd274B3SLloHyFNzJWhMlvcj9jDd3VqICpfop0S8i6D/Kku\n8+aPMifLdE6WoudO+dqtJ20kvSr/7NAe7NbCfGB4QQKBgGFlLjMtTQwH/gn1D62n\nBiZwBmWhNLxjCyFcbL14pXhOtYMog1ZCf/U2g2NhpkIyIVeKPV7z5OeG3U/OfSBU\n/8Cx+3mHjIWzP+h77Zc4BWPLcMICavMxDJ/g/8s49gT23jeuboK/IemhHESgMuRB\nfLwP4LFyr8rydwprwxUvmxmn\n-----END PRIVATE KEY-----\n",
  "client_email": "firebase-adminsdk-ho86i@sallve-85185.iam.gserviceaccount.com",
  "client_id": "109575762552740186186",
  "auth_uri": "https://accounts.google.com/o/oauth2/auth",
  "token_uri": "https://oauth2.googleapis.com/token",
  "auth_provider_x509_cert_url": "https://www.googleapis.com/oauth2/v1/certs",
  "client_x509_cert_url": "https://www.googleapis.com/robot/v1/metadata/x509/firebase-adminsdk-ho86i%40sallve-85185.iam.gserviceaccount.com"
}
